%YAML 1.1
%TAG !u! tag:unity3d.com,2011:
--- !u!1045 &1
EditorBuildSettings:
  m_ObjectHideFlags: 0
  serializedVersion: 2
  m_Scenes:
  - enabled: 1
    path: Assets/Scenes/SampleScene.unity
    guid: 3db1837cc97a95e4c98610966fac2b0b
  - enabled: 1
    path: Assets/Scenes/Lab5/5.1/5.1.unity
    guid: d84fd1c420630ce4ba2d7f4f3a3ab929
  - enabled: 0
    path: Assets/Scenes/Lab5/Setting/UIToolkit - Setting.unity
    guid: ec9a7abcf47378f49b52ea896ede8b63
  - enabled: 0
    path: Assets/Scenes/Lab5/Setting/UIToolkit - Setting.unity
    guid: ec9a7abcf47378f49b52ea896ede8b63
  - enabled: 1
    path: Assets/Scenes/Lab5/Setting/Setting.unity
    guid: 76618dd4079a32149b7361f526e296dd
  - enabled: 1
    path: Assets/Scenes/Lab5/Credits/Credits.unity
    guid: 48410af457e5fdf489ca89038e0da2d8
  m_configObjects: {}
